%YAML 1.1
%TAG !u! tag:unity3d.com,2011:
--- !u!78 &1
TagManager:
  serializedVersion: 2
  tags: []
  layers:
  - Default
  - TransparentFX
  - Ignore Raycast
  - 
  - Water
  - UI
  - 
  - 
  - Base
  - Background
  - Back1
  - Back2
  - Middle1
  - Middle2
  - Front1
  - Front2
  - Popups
  - Effects
  - Game
  - 
  - 
  - 
  - 
  - 
  - 
  - 
  - 
  - 
  - 
  - 
  - 
  - 
  m_SortingLayers:
  - name: Default
    uniqueID: 0
    locked: 0
  - name: Base
    uniqueID: 1954720213
    locked: 0
  - name: Background
    uniqueID: 3340160175
    locked: 0
  - name: Back1
    uniqueID: 1592242455
    locked: 0
  - name: Back2
    uniqueID: 1712283769
    locked: 0
  - name: Middle1
    uniqueID: 3100180657
    locked: 0
  - name: Middle2
    uniqueID: 4280797075
    locked: 0
  - name: Front1
    uniqueID: 2919620995
    locked: 0
  - name: Front2
    uniqueID: 1241295837
    locked: 0
  - name: Popups
    uniqueID: 1157380289
    locked: 0
  - name: Effects
    uniqueID: 3359553257
    locked: 0
